<svg xmlns="http://www.w3.org/2000/svg" viewBox="0 0 512 512">
  <g>
    <polygon points="371.39 140.58 341.52 195.15 323.83 205.06 202.28 326.6 226.59 325.54 226.43 340.13 184.29 342.43 152.72 374.05 138.04 359.13 169.66 327.57 171.95 285.43 186.54 285.27 185.49 309.58 307.03 188.03 316.94 170.34 371.39 140.58"/>
    <g>
      <polygon points="204.76 155.62 255.74 104.64 306.63 155.53 341.91 136.25 255.74 50.08 169.5 136.32 204.76 155.62"/>
      <polygon points="375.7 170.05 356.4 205.3 407.42 256.32 358.61 305.12 359.42 319.9 378.92 339.37 461.97 256.32 375.7 170.05"/>
      <polygon points="319.18 359.9 304.63 359.11 255.74 408 206.9 359.16 192.13 359.96 172.65 379.47 255.74 462.55 338.77 379.52 319.18 359.9"/>
      <polygon points="152.12 319.73 152.91 305.18 104.06 256.32 154.98 205.39 135.71 170.11 49.5 256.32 132.5 339.32 152.12 319.73"/>
    </g>
    <polygon points="140.04 140.63 194.6 170.5 204.51 188.19 326.05 309.74 325 285.43 339.58 285.6 341.88 327.73 373.5 359.3 358.59 373.98 327.02 342.36 284.88 340.07 284.72 325.48 309.03 326.54 187.48 204.99 169.79 195.08 140.04 140.63"/>
  </g>
  <rect x="-0.5" width="512" height="512" style="fill: none"/>
  <rect x="511.5" width="512" height="512" style="fill: none"/>
</svg>
