<svg xmlns="http://www.w3.org/2000/svg" viewBox="0 0 512 512">
  <path d="M256.38,69.11,94.26,162.71V349.92l162.12,93.6,162.12-93.6V162.71ZM189,342.71H148.61V190.25H189Zm58.29,0H206.91V190.25h40.35ZM217.37,154.38H293.6l-37.37,38.86Zm88.19,188.33H265.2V190.25h40.36Zm59.78,0H325V190.25h40.35Z"/>
  <rect width="512" height="512" style="fill: none"/>
</svg>
