<svg xmlns="http://www.w3.org/2000/svg" viewBox="0 0 512 512">
  <g>
    <polygon points="296.65 83.68 296.65 88.51 275.73 155.47 275.73 83.68 236.86 83.68 236.86 155.42 215.94 88.46 215.94 83.68 178.57 83.68 178.57 343.76 215.94 343.76 215.94 201.56 236.86 282.47 236.86 343.76 275.73 343.76 275.73 282.52 296.65 201.61 296.65 343.76 334.02 343.76 334.02 83.68 296.65 83.68"/>
    <polygon points="354.94 144.96 354.94 176.35 381.85 176.35 381.85 397.57 271.24 397.57 271.24 361.69 241.35 361.69 241.35 397.57 130.74 397.57 130.74 176.35 157.64 176.35 157.64 144.96 99.35 144.96 99.35 428.95 413.24 428.95 413.24 144.96 354.94 144.96"/>
  </g>
  <rect width="512" height="512" style="fill: none"/>
</svg>
