<svg xmlns="http://www.w3.org/2000/svg" viewBox="0 0 512 512">
  <g>
    <polygon points="207.47 373.01 131.28 329.02 131.28 183.38 197.35 145.23 214.53 126.08 214.5 93.76 95.28 162.6 95.28 349.8 222.1 423.03 207.47 373.01"/>
    <polygon points="229.77 363.73 236.68 339.2 236.68 181.98 222.88 197.03 202.15 175.83 238.54 135.25 238.49 77.31 275.88 77.6 275.83 135.45 312.22 176.03 291.49 197.23 277.69 182.17 277.69 339.4 284.61 363.93 257.18 457.46 229.77 363.73"/>
    <polygon points="299.87 93.52 299.85 126.28 316.19 144.5 383.52 183.38 383.52 329.02 306.88 373.27 292.2 423.31 419.52 349.8 419.52 162.6 299.87 93.52"/>
    <polygon points="225.68 337.68 225.68 210.26 223.14 213.03 198.24 187.56 168.37 204.8 168.37 307.6 224.95 340.27 225.68 337.68"/>
    <polygon points="316.41 187.47 291.23 213.23 288.69 210.45 288.69 337.88 289.43 340.51 346.43 307.6 346.43 204.8 316.41 187.47"/>
  </g>
  <rect width="512" height="512" style="fill: none"/>
</svg>
